,time,humid,rain,light,temp
0,"[2000, 1, 2, 17, 44, 38, 6, 2]",77.03285,0,99.98779,11.26175
1,"[2000, 1, 2, 17, 49, 53, 6, 2]",75.46797,0,99.98779,10.98042
2,"[2000, 1, 2, 17, 54, 58, 6, 2]",73.51017,0,99.98779,11.64036
3,"[2000, 1, 2, 18, 0, 3, 6, 2]",74.42026,0,99.98779,11.38859
4,"[2000, 1, 2, 18, 5, 8, 6, 2]",73.61259,0,99.98779,11.60412
5,"[2000, 1, 2, 18, 10, 23, 6, 2]",76.25103,0,99.98779,11.00368
6,"[2000, 1, 2, 18, 15, 28, 6, 2]",79.78563,0,99.98779,10.49557
7,"[2000, 1, 2, 18, 20, 33, 6, 2]",80.14116,0,99.98779,10.22224
8,"[2000, 1, 2, 18, 25, 38, 6, 2]",81.42509,0,99.98779,10.29701
9,"[2000, 1, 2, 18, 30, 53, 6, 2]",83.4468,0,99.98779,10.03513
10,"[2000, 1, 2, 18, 35, 58, 6, 2]",83.36105,0,99.98779,9.671021
11,"[2000, 1, 2, 18, 41, 3, 6, 2]",85.07624,0,99.98779,9.707642
