,time,humid,rain,light,temp
0,"[2000, 1, 2, 20, 48, 42, 6, 2]",76.94292,0,99.98779,9.48391
1,"[2000, 1, 2, 20, 53, 57, 6, 2]",76.54781,0,99.98779,9.415436
2,"[2000, 1, 2, 20, 59, 11, 6, 2]",77.89764,0,99.98779,9.445953
3,"[2000, 1, 2, 21, 4, 16, 6, 2]",77.66809,0,99.98779,9.09729
4,"[2000, 1, 2, 21, 9, 21, 6, 2]",77.97212,0,99.98779,9.202194
5,"[2000, 1, 2, 21, 14, 27, 6, 2]",76.22939,0,99.98779,8.97274
6,"[2000, 1, 2, 21, 19, 32, 6, 2]",76.43814,0,99.98779,9.160614
7,"[2000, 1, 2, 21, 24, 37, 6, 2]",75.63705,0,99.98779,9.327507
8,"[2000, 1, 2, 21, 29, 43, 6, 2]",74.65677,0,99.98779,9.362793
9,"[2000, 1, 2, 21, 34, 57, 6, 2]",72.08786,0,99.98779,9.116173
10,"[2000, 1, 2, 21, 40, 2, 6, 2]",71.47942,0,99.98779,9.01413
11,"[2000, 1, 2, 21, 45, 7, 6, 2]",71.8029,0,99.98779,8.935738
