,time,humid,rain,light,temp
0,"[2000, 1, 1, 2, 56, 52, 5, 1]",90.41691,0,5.322266,8.031464
1,"[2000, 1, 1, 3, 1, 57, 5, 1]",91.92687,0,5.371094,8.118439
2,"[2000, 1, 1, 3, 7, 3, 5, 1]",91.30058,0,5.383301,8.392525
3,"[2000, 1, 1, 3, 12, 8, 5, 1]",90.93323,0,5.236816,8.3601
4,"[2000, 1, 1, 3, 17, 13, 5, 1]",90.27748,0,5.126953,8.285713
5,"[2000, 1, 1, 3, 22, 18, 5, 1]",90.18241,0,5.13916,8.21209
6,"[2000, 1, 1, 3, 27, 24, 5, 1]",89.06956,0,5.13916,8.343506
7,"[2000, 1, 1, 3, 32, 29, 5, 1]",88.57994,0,5.041504,8.291435
8,"[2000, 1, 1, 3, 37, 43, 5, 1]",88.39855,0,4.748535,8.316803
9,"[2000, 1, 1, 3, 42, 49, 5, 1]",88.45682,0,4.882813,8.243942
10,"[2000, 1, 1, 3, 47, 54, 5, 1]",88.00316,0,4.248047,8.206177
11,"[2000, 1, 1, 3, 52, 59, 5, 1]",87.87804,0,4.406738,8.189392
