,time,humid,rain,light,temp
0,"[2000, 1, 1, 1, 54, 54, 5, 1]",82.89967,0,5.187988,9.409904
1,"[2000, 1, 1, 1, 59, 59, 5, 1]",82.60651,0,5.078125,9.49173
2,"[2000, 1, 1, 2, 5, 4, 5, 1]",83.25052,0,5.041504,9.454536
3,"[2000, 1, 1, 2, 10, 9, 5, 1]",84.2578,0,4.89502,9.361458
4,"[2000, 1, 1, 2, 15, 24, 5, 1]",83.34389,0,4.931641,9.433174
5,"[2000, 1, 1, 2, 20, 29, 5, 1]",84.15709,0,4.931641,9.328079
6,"[2000, 1, 1, 2, 25, 34, 5, 1]",85.49453,0,4.89502,9.269714
7,"[2000, 1, 1, 2, 30, 40, 5, 1]",87.96024,0,4.406738,8.917427
8,"[2000, 1, 1, 2, 35, 55, 5, 1]",86.62643,0,5.273438,8.746147
9,"[2000, 1, 1, 2, 41, 9, 5, 1]",85.37617,0,5.175781,8.563042
10,"[2000, 1, 1, 2, 46, 23, 5, 1]",86.66353,0,4.638672,8.341408
11,"[2000, 1, 1, 2, 51, 38, 5, 1]",88.72871,0,5.273438,8.157539
