,time,humid,rain,light,temp
0,"[2000, 1, 1, 4, 59, 8, 5, 1]",86.4419,0,5.664063,7.736778
1,"[2000, 1, 1, 5, 4, 13, 5, 1]",85.62908,0,5.773926,7.761765
2,"[2000, 1, 1, 5, 9, 18, 5, 1]",85.73371,0,5.810547,7.69558
3,"[2000, 1, 1, 5, 14, 23, 5, 1]",85.01731,0,5.822754,7.782745
4,"[2000, 1, 1, 5, 19, 29, 5, 1]",86.23191,0,5.908203,7.56073
5,"[2000, 1, 1, 5, 24, 34, 5, 1]",86.28521,0,5.810547,7.542801
6,"[2000, 1, 1, 5, 29, 39, 5, 1]",85.70728,0,5.908203,7.600975
7,"[2000, 1, 1, 5, 34, 45, 5, 1]",84.78527,0,5.908203,7.628059
8,"[2000, 1, 1, 5, 39, 50, 5, 1]",83.70028,0,5.761719,7.725525
9,"[2000, 1, 1, 5, 44, 55, 5, 1]",83.04987,0,5.957031,7.735634
10,"[2000, 1, 1, 5, 50, 0, 5, 1]",83.1686,0,5.969238,7.649803
11,"[2000, 1, 1, 5, 55, 6, 5, 1]",82.5551,0,5.822754,7.633209
